{
    "locations" : [
        {
            "source": "Coimbatore",
            "destination": ["Tiruppur","Bangalore","Chennai","Madhurai","Selam","Erode","Tiruchy"]
        },
        {
            "source": "Tiruppur",
            "destination": ["Coimbatore","Bangalore","Chennai","Madhurai","Selam","Erode","Tiruchy"]
        },
        {
            "source": "Bangalore",
            "destination": ["Tiruppur","Coimbatore","Chennai","Madhurai","Selam","Erode","Tiruchy"]
        },
        {
            "source": "Chennai",
            "destination": ["Tiruppur","Bangalore","Coimbatore","Madhurai","Selam","Erode","Tiruchy"]
        },
        {
            "source": "Selam",
            "destination": ["Tiruppur","Bangalore","Chennai","Madhurai","Coimbatore","Erode","Tiruchy"]
        }
    ]
}